Division,WeightClassKg,Place,Name,Team,BodyweightKg,Best3SquatKg,Best3BenchKg,Best3DeadliftKg,TotalKg,Equipment,Event,Sex
Freshmen,51.71,1,Erik Oliva,Laredo United South,50.98,106.59,72.57,131.54,310.71,Single-ply,SBD,M
Freshmen,51.71,2,Rey Gomez,Laredo United South,47.99,90.72,49.9,104.33,244.94,Single-ply,SBD,M
Freshmen,51.71,3,Ray Johnson,Laredo Nixon,48.17,79.38,45.36,102.06,226.8,Single-ply,SBD,M
Freshmen,51.71,DQ,Hector Villegas,Roma,51.71,,,,,Single-ply,SBD,M
Freshmen,55.79,1,Gustavo Ayala,Cotulla,55.34,111.13,68.04,129.27,308.44,Single-ply,SBD,M
Freshmen,55.79,2,Mario Gonzalez,Roma,53.52,111.13,61.23,117.93,290.3,Single-ply,SBD,M
Freshmen,59.87,3,Javier Facundo,Laredo United South,56.02,104.33,52.16,111.13,267.62,Single-ply,SBD,M
Freshmen,55.79,4,Zack Cruz,Carrizo Springs,54.88,90.72,49.9,99.79,240.4,Single-ply,SBD,M
Freshmen,55.79,5,Alfredo Arias,Laredo Alexander,55.34,83.91,,,83.91,Single-ply,S,M
Freshmen,55.79,DQ,Mathew Nevarez,Carrizo Springs,55.79,,,,,Single-ply,S,M
Freshmen,67.13,1,Jess Rutledge,Carrizo Springs,59.96,115.67,65.77,133.81,315.25,Single-ply,SBD,M
Freshmen,59.87,2,Justin Martinez,Carrizo Springs,59.06,115.67,68.04,127.01,310.71,Single-ply,SBD,M
Freshmen,59.87,3,Gabriel Perez,Laredo Alexander,56.7,106.59,68.04,131.54,306.17,Single-ply,SBD,M
Freshmen,59.87,4,Edgar Barboza,Laredo Cigarroa,58.97,111.13,74.84,113.4,299.37,Single-ply,SBD,M
Freshmen,59.87,5,Isaac Castillo,Laredo Cigarroa,59.15,108.86,68.04,120.2,297.1,Single-ply,SBD,M
Freshmen,59.87,DQ,Jj Cadena,Laredo United,59.87,,,,,Single-ply,SBD,M
Freshmen,59.87,DQ,Orlando Solis,Roma,59.87,,,,,Single-ply,SBD,M
Freshmen,59.87,DQ,Martin Guardeola,Roma,59.87,,,,,Single-ply,SBD,M
Freshmen,67.13,1,Ricky Ayala,Cotulla,63.73,138.35,77.11,167.83,383.29,Single-ply,SBD,M
Freshmen,67.13,2,Xavione Skaggs,Laredo Alexander,62.6,136.08,77.11,167.83,381.02,Single-ply,SBD,M
Freshmen,74.84,3,Felipe Ramirez,Laredo United South,67.36,136.08,65.77,161.03,362.87,Single-ply,SBD,M
Freshmen,67.13,4,Zach Williams,Laredo United,62.6,124.74,68.04,142.88,335.66,Single-ply,SBD,M
Freshmen,74.84,5,Jesus Gonzalez,Laredo United,67.22,111.13,79.38,142.88,333.39,Single-ply,SBD,M
Freshmen,67.13,6,Tadeo Gonzalez,Laredo Nixon,62.6,102.06,61.23,120.2,283.5,Single-ply,SBD,M
Freshmen,67.13,7,Roy Medina,Laredo Nixon,61.78,74.84,52.16,111.13,238.14,Single-ply,SBD,M
Freshmen,67.13,DQ,Fernando Cantu,Roma,67.13,,,,,Single-ply,SBD,M
Freshmen,67.13,DQ,Randy Aguilar,Laredo Johnson,67.13,,,,,Single-ply,SBD,M
Freshmen,67.13,DQ,Ramiro Castillo,Laredo Johnson,67.13,,,,,Single-ply,SBD,M
Freshmen,67.13,DQ,Abraham Gonzalez,Laredo Johnson,60.55,,,,,Single-ply,SBD,M
Freshmen,67.13,DQ,Jose Alfaro,Carrizo Springs,64.41,,,,,Single-ply,SBD,M
Freshmen,74.84,1,Eloy Guerrero,Roma,69.49,156.49,81.65,154.22,392.36,Single-ply,SBD,M
Freshmen,74.84,2,Sergio Garcia,Laredo Nixon,70.03,156.49,77.11,158.76,392.36,Single-ply,SBD,M
Freshmen,74.84,3,Rudy Leon,Laredo United South,73.03,127.01,74.84,147.42,349.27,Single-ply,SBD,M
Freshmen,74.84,4,Randall Hinojosa,Laredo Alexander,73.21,113.4,83.91,129.27,326.59,Single-ply,SBD,M
Freshmen,74.84,5,Cesar Cortez,Laredo Nixon,69.49,117.93,61.23,131.54,310.71,Single-ply,SBD,M
Freshmen,74.84,6,Jerry Villareal,Laredo United,73.94,102.06,49.9,154.22,306.17,Single-ply,SBD,M
Freshmen,74.84,7,Jaime Hinojosa,Laredo Alexander,69.85,95.25,58.97,140.61,294.84,Single-ply,SBD,M
Freshmen,74.84,8,Javier Martinez,Laredo Alexander,68.04,102.06,58.97,127.01,288.03,Single-ply,SBD,M
Freshmen,74.84,9,Steven Salazar,Laredo Nixon,69.85,99.79,70.31,111.13,281.23,Single-ply,SBD,M
Freshmen,82.1,1,Ac Martinez,Laredo United,82.1,188.24,70.31,183.7,442.25,Single-ply,SBD,M
Freshmen,82.1,2,Carlos Martinez #17,Laredo Nixon,82.1,156.49,92.99,181.44,430.91,Single-ply,SBD,M
Freshmen,82.1,3,Sammy Esparza,Laredo United,76.66,136.08,79.38,145.15,360.61,Single-ply,SBD,M
Freshmen,82.1,4,Marco DeLuna,Laredo United South,81.56,131.54,74.84,149.69,356.07,Single-ply,SBD,M
Freshmen,82.1,5,Alex Perez,Laredo United,78.47,124.74,65.77,142.88,333.39,Single-ply,SBD,M
Freshmen,82.1,6,Benito Orozco,Laredo Martin,76.29,90.72,70.31,122.47,283.5,Single-ply,SBD,M
Freshmen,82.1,DQ,Rolando Flores,Laredo Johnson,82.1,,,,,Single-ply,SBD,M
Freshmen,89.81,DQ,Jose Garnica,Laredo United South,82.28,,,,,Single-ply,SBD,M
Freshmen,82.1,DQ,Alfredo Gomez,Laredo Alexander,80.74,124.74,,,,Single-ply,SBD,M
Freshmen,89.81,1,Jorge Martinez,Laredo United,89.81,161.03,99.79,181.44,442.25,Single-ply,SBD,M
Freshmen,89.81,2,Max Flores,Laredo Alexander,89.81,156.49,90.72,181.44,428.64,Single-ply,SBD,M
Freshmen,89.81,3,Luis Botello,Laredo Nixon,89.81,142.88,92.99,165.56,401.43,Single-ply,SBD,M
Freshmen,89.81,4,Jose Lugo,Laredo United South,87.91,129.27,63.5,151.95,344.73,Single-ply,SBD,M
Freshmen,89.81,5,Kevin Gunn,Carrizo Springs,89.81,102.06,74.84,147.42,324.32,Single-ply,SBD,M
Freshmen,89.81,6,Adrian Flores,Laredo Alexander,83.01,90.72,95.25,113.4,299.37,Single-ply,SBD,M
Freshmen,99.79,1,Florencio Palmerin,Laredo Nixon,99.79,176.9,97.52,165.56,439.98,Single-ply,SBD,M
Freshmen,99.79,2,Santos Alvarado,Laredo United,99.79,158.76,99.79,163.29,421.84,Single-ply,SBD,M
Freshmen,99.79,3,Adrian Garza,Roma,99.79,163.29,90.72,147.42,401.43,Single-ply,SBD,M
Freshmen,99.79,4,Jesus Grimaldo,Roma,92.35,145.15,77.11,136.08,358.34,Single-ply,SBD,M
Freshmen,99.79,5,Andrew Estrada,Carrizo Springs,99.79,145.15,65.77,127.01,337.93,Single-ply,SBD,M
Freshmen,99.79,6,Isidro Ayala,Laredo Johnson,99.79,127.01,56.7,117.93,301.64,Single-ply,SBD,M
Freshmen,99.79,DQ,Ram Martinez,Laredo United,99.79,120.2,,,,Single-ply,SBD,M
Freshmen,109.77,1,Ovidio Hernandez,Roma,107.68,183.7,95.25,183.7,462.66,Single-ply,SBD,M
Freshmen,109.77,2,Isael Claudio,Laredo Cigarroa,108.86,142.88,90.72,156.49,390.09,Single-ply,SBD,M
Freshmen,109.77,3,Joey Leyva,Laredo United,102.97,142.88,72.57,142.88,358.34,Single-ply,SBD,M
Freshmen,109.77,4,Victor Nenque,Laredo Nixon,105.14,120.2,86.18,140.61,347,Single-ply,SBD,M
Freshmen,109.77,5,Jose Rivera,Laredo United South,102.69,124.74,63.5,154.22,342.46,Single-ply,SBD,M
Freshmen,109.77,6,Sergio Aleman,Carrizo Springs,103.51,124.74,65.77,142.88,333.39,Single-ply,SBD,M
Freshmen,109.77,DQ,Leonel Velazco,Laredo Alexander,107.95,142.88,,,,Single-ply,SBD,M
Freshmen,124.74,1,Eliseo Bernal,Laredo Johnson,114.76,136.08,92.99,161.03,390.09,Single-ply,SBD,M
Freshmen,124.74,2,Jesus Vasquez,Laredo Johnson,115.21,129.27,77.11,147.42,353.8,Single-ply,SBD,M
Freshmen,124.74,3,Vicente Aguirre,Carrizo Springs,113.31,113.4,81.65,147.42,342.46,Single-ply,SBD,M
Freshmen,124.74,4,Andres Lopes,Roma,111.4,102.06,63.5,102.06,267.62,Single-ply,SBD,M
Freshmen,124.74+,1,Julio Escobedo,Laredo United South,176.9,142.88,81.65,188.24,412.77,Single-ply,SBD,M
Freshmen,,NS,Juan Chavez,Laredo Martin,,,,,,Single-ply,SBD,M
Freshmen,,NS,Frank Garcia,Laredo Martin,,,,,,Single-ply,SBD,M
Freshmen,,NS,Jose Mosqueda,Laredo Cigarroa,,,,,,Single-ply,SBD,M
Freshmen,,NS,Gilbert Hernandez,Laredo Cigarroa,,,,,,Single-ply,SBD,M
Freshmen,,NS,Luis Martinez #24,Laredo Cigarroa,,,,,,Single-ply,SBD,M
Freshmen,,NS,Julio Barron,Laredo Cigarroa,,,,,,Single-ply,SBD,M
Freshmen,,NS,Jose Flores #2,Laredo Cigarroa,,,,,,Single-ply,SBD,M
Freshmen,,NS,Johnathan Aguero,Laredo Martin,,,,,,Single-ply,SBD,M
Freshmen,,NS,Chistian Pearson,Laredo Martin,,,,,,Single-ply,SBD,M
Freshmen,,NS,Jimmy Morin,Laredo Martin,,,,,,Single-ply,SBD,M
Freshmen,,NS,Victor Resendez,Laredo Martin,,,,,,Single-ply,SBD,M
Freshmen,,NS,Pedro Moron,Laredo Martin,,,,,,Single-ply,SBD,M
Freshmen,,NS,Edgardo Canales,Laredo Martin,,,,,,Single-ply,SBD,M
Freshmen,,NS,Rey Garza,Laredo Martin,,,,,,Single-ply,SBD,M
